…
    ##   Sepal.Length Sepal.Width Petal.Length Petal.Width Species
    ## 1          5.1         3.5          1.4         0.2  setosa
    ## 2          4.9         3.0          1.4         0.2  setosa
    ## 3          4.7         3.2          1.3         0.2  setosa
    ## 4          4.6         3.1          1.5         0.2  setosa
    ## 5          5.0         3.6          1.4         0.2  setosa
    ## 6          5.4         3.9          1.7         0.4  setosa

But let’s see how tibbles differ in their output

``` r
as_tibble(iris)
```

    ## # A tibble: 150 x 5
    ##    Sepal.Length Sepal.Width Petal.Length Petal.Width Species
    ##           <dbl>       <dbl>        <dbl>       <dbl> <fct>  
    ##  1          5.1         3.5          1.4         0.2 setosa 
    ##  2          4.9         3            1.4         0.2 setosa 
    ##  3          4.7         3.2          1.3         0.2 setosa 
    ##  4          4.6         3.1          1.5         0.2 setosa 
    ##  5          5           3.6          1.4         0.2 setosa 
    ##  6          5.4         3.9          1.7         0.4 setosa 
    ##  7          4.6         3.4          1.4         0.3 setosa 
    ##  8          5           3.4          1.5         0.2 setosa 
    ##  9          4.4         2.9          1.4         0.2 setosa 
    ## 10          4.9         3.1          1.5         0.1 setosa 
    ## # ... with 140 more rows
…
Load in data of prez candidate campaign trips between midterms and end
of Jan

``` r
events <- readRDS("events_saved.rds")
```

Let’s take a look at what we’ve got

``` r
events
```

    ## # A tibble: 88 x 7
    ##    date       cand_restname cand_lastname city  state event_type
    ##    <date>     <chr>         <chr>         <chr> <chr> <chr>     
    ##  1 2010-02-06 John          Delaney       Salt~ UT    event spe~
    ##  2 2019-01-31 Sherrod       Brown         Perry IA    meet and ~
    ##  3 2019-01-31 Marianne      Williamson    Des ~ IA    campaign ~
    ##  4 2019-01-31 Eric          Swalwell      Exet~ NH    meet and ~
    ##  5 2019-01-31 John          Hickenlooper  Wash~ DC    event spe~
    ##  6 2019-01-30 John          Delaney       Coun~ IA    campaign ~
    ##  7 2019-01-30 Sherrod       Brown         Clev~ OH    rally     
    ##  8 2019-01-30 Howard        Schultz       Tempe AZ    event spe~
    ##  9 2019-01-29 Beto          O'Rourke      El P~ TX    meet and ~
    ## 10 2019-01-29 Michael       Bloomberg     Manc~ NH    event spe~
    ## # ... with 78 more rows, and 1 more variable: description <chr>
…
Can you think of when we might find ourselves wanting to do that? (hint:
think big)

Now let’s try out some of our filtering and arranging techniques.

Show all events in Iowa:

``` r
events %>% 
  filter(state == "IA")
```

    ## # A tibble: 21 x 7
    ##    date       cand_restname cand_lastname city  state event_type
    ##    <date>     <chr>         <chr>         <chr> <chr> <chr>     
    ##  1 2019-01-31 Sherrod       Brown         Perry IA    meet and ~
    ##  2 2019-01-31 Marianne      Williamson    Des ~ IA    campaign ~
    ##  3 2019-01-30 John          Delaney       Coun~ IA    campaign ~
    ##  4 2019-01-28 Kamala        Harris        Des ~ IA    town hall 
    ##  5 2019-01-27 Eric          Swalwell      Mari~ IA    meet and ~
    ##  6 2019-01-27 John          Hickenlooper  Des ~ IA    house par~
    ##  7 2019-01-25 John          Delaney       Des ~ IA    event spe~
    ##  8 2019-01-18 Kirsten       Gillibrand    Siou~ IA    organizin~
    ##  9 2019-01-11 John          Delaney       Des ~ IA    organizin~
    ## 10 2019-01-09 Tom           Steyer        Des ~ IA    meet and ~
    ## # ... with 11 more rows, and 1 more variable: description <chr>
…
Let’s talk about **date-specific** stuff.  
If I have a properly formatted date in a dataframe, can I sort by it?
*Yes.*

``` r
events %>% 
  filter(state == "IA") %>% 
  arrange(desc(date))
```

    ## # A tibble: 21 x 7
    ##    date       cand_restname cand_lastname city  state event_type
    ##    <date>     <chr>         <chr>         <chr> <chr> <chr>     
    ##  1 2019-01-31 Sherrod       Brown         Perry IA    meet and ~
    ##  2 2019-01-31 Marianne      Williamson    Des ~ IA    campaign ~
    ##  3 2019-01-30 John          Delaney       Coun~ IA    campaign ~
    ##  4 2019-01-28 Kamala        Harris        Des ~ IA    town hall 
    ##  5 2019-01-27 Eric          Swalwell      Mari~ IA    meet and ~
    ##  6 2019-01-27 John          Hickenlooper  Des ~ IA    house par~
    ##  7 2019-01-25 John          Delaney       Des ~ IA    event spe~
    ##  8 2019-01-18 Kirsten       Gillibrand    Siou~ IA    organizin~
    ##  9 2019-01-11 John          Delaney       Des ~ IA    organizin~
    ## 10 2019-01-09 Tom           Steyer        Des ~ IA    meet and ~
    ## # ... with 11 more rows, and 1 more variable: description <chr>

What if I want to pull out only certain ranges of dates? *Several
approaches.*  
Specifiying a specific date using as.Date()

``` r
events %>% 
  filter(date < as.Date("2018-12-31"))
```

    ## # A tibble: 27 x 7
    ##    date       cand_restname cand_lastname city  state event_type
    ##    <date>     <chr>         <chr>         <chr> <chr> <chr>     
    ##  1 2010-02-06 John          Delaney       Salt~ UT    event spe~
    ##  2 2018-12-23 Beto          O'Rourke      Torn~ TX    tour      
    ##  3 2018-12-20 Pete          Buttigieg     Des ~ IA    event spe~
    ##  4 2018-12-20 Jeff          Merkley       Des ~ IA    event spe~
    ##  5 2018-12-20 Eric          Swalwell      Des ~ IA    event spe~
    ##  6 2018-12-20 Andrew        Yang          Des ~ IA    event spe~
    ##  7 2018-12-15 Jeff          Merkley       Torn~ TX    tour      
    ##  8 2018-12-15 Beto          O'Rourke      Torn~ TX    tour      
    ##  9 2018-12-14 Elizabeth     Warren        Balt~ MD    event spe~
    ## 10 2018-12-14 Eric          Swalwell      Manc~ NH    event spe~
    ## # ... with 17 more rows, and 1 more variable: description <chr>

Take advantage of the LUBRIDATE package - a tidyverse package
specifically for dates  
*Note: lubridate needs to be called separately at the top with
library(lubridate) - it doesn’t yet load with library(tidyverse)*

Now watch what we can do:

``` r
events %>% 
  filter(year(date) == 2018)
```

    ## # A tibble: 26 x 7
    ##    date       cand_restname cand_lastname city  state event_type
    ##    <date>     <chr>         <chr>         <chr> <chr> <chr>     
    ##  1 2018-12-23 Beto          O'Rourke      Torn~ TX    tour      
    ##  2 2018-12-20 Pete          Buttigieg     Des ~ IA    event spe~
    ##  3 2018-12-20 Jeff          Merkley       Des ~ IA    event spe~
    ##  4 2018-12-20 Eric          Swalwell      Des ~ IA    event spe~
    ##  5 2018-12-20 Andrew        Yang          Des ~ IA    event spe~
    ##  6 2018-12-15 Jeff          Merkley       Torn~ TX    tour      
    ##  7 2018-12-15 Beto          O'Rourke      Torn~ TX    tour      
    ##  8 2018-12-14 Elizabeth     Warren        Balt~ MD    event spe~
    ##  9 2018-12-14 Eric          Swalwell      Manc~ NH    event spe~
    ## 10 2018-12-13 Tom           Steyer        Fres~ CA    event spe~
    ## # ... with 16 more rows, and 1 more variable: description <chr>

Just events in January 2019

``` r
events %>% 
  filter(year(date) == 2019,
         month(date) == 1)
```

    ## # A tibble: 61 x 7
    ##    date       cand_restname cand_lastname city  state event_type
    ##    <date>     <chr>         <chr>         <chr> <chr> <chr>     
    ##  1 2019-01-31 Sherrod       Brown         Perry IA    meet and ~
    ##  2 2019-01-31 Marianne      Williamson    Des ~ IA    campaign ~
    ##  3 2019-01-31 Eric          Swalwell      Exet~ NH    meet and ~
    ##  4 2019-01-31 John          Hickenlooper  Wash~ DC    event spe~
    ##  5 2019-01-30 John          Delaney       Coun~ IA    campaign ~
    ##  6 2019-01-30 Sherrod       Brown         Clev~ OH    rally     
    ##  7 2019-01-30 Howard        Schultz       Tempe AZ    event spe~
    ##  8 2019-01-29 Beto          O'Rourke      El P~ TX    meet and ~
    ##  9 2019-01-29 Michael       Bloomberg     Manc~ NH    event spe~
    ## 10 2019-01-28 Howard        Schultz       New ~ NY    book tour 
    ## # ... with 51 more rows, and 1 more variable: description <chr>
…
Brings us to another key function of dpylr/tidyverse - **MUTATE**

### ADDING COLUMNS WITH MUTATE

To add a column, you give it a name, then a single equal sign (=), then
define what’s in it.  
Test example:

``` r
events %>% 
  mutate(mycolumn = "hi there")
```

    ## # A tibble: 88 x 8
    ##    date       cand_restname cand_lastname city  state event_type
    ##    <date>     <chr>         <chr>         <chr> <chr> <chr>     
    ##  1 2010-02-06 John          Delaney       Salt~ UT    event spe~
    ##  2 2019-01-31 Sherrod       Brown         Perry IA    meet and ~
    ##  3 2019-01-31 Marianne      Williamson    Des ~ IA    campaign ~
    ##  4 2019-01-31 Eric          Swalwell      Exet~ NH    meet and ~
    ##  5 2019-01-31 John          Hickenlooper  Wash~ DC    event spe~
    ##  6 2019-01-30 John          Delaney       Coun~ IA    campaign ~
    ##  7 2019-01-30 Sherrod       Brown         Clev~ OH    rally     
    ##  8 2019-01-30 Howard        Schultz       Tempe AZ    event spe~
    ##  9 2019-01-29 Beto          O'Rourke      El P~ TX    meet and ~
    ## 10 2019-01-29 Michael       Bloomberg     Manc~ NH    event spe~
    ## # ... with 78 more rows, and 2 more variables: description <chr>,
    ## #   mycolumn <chr>

``` r
events %>% 
  mutate(electioncycle = 2020)
```

    ## # A tibble: 88 x 8
    ##    date       cand_restname cand_lastname city  state event_type
    ##    <date>     <chr>         <chr>         <chr> <chr> <chr>     
    ##  1 2010-02-06 John          Delaney       Salt~ UT    event spe~
    ##  2 2019-01-31 Sherrod       Brown         Perry IA    meet and ~
    ##  3 2019-01-31 Marianne      Williamson    Des ~ IA    campaign ~
    ##  4 2019-01-31 Eric          Swalwell      Exet~ NH    meet and ~
    ##  5 2019-01-31 John          Hickenlooper  Wash~ DC    event spe~
    ##  6 2019-01-30 John          Delaney       Coun~ IA    campaign ~
    ##  7 2019-01-30 Sherrod       Brown         Clev~ OH    rally     
    ##  8 2019-01-30 Howard        Schultz       Tempe AZ    event spe~
    ##  9 2019-01-29 Beto          O'Rourke      El P~ TX    meet and ~
    ## 10 2019-01-29 Michael       Bloomberg     Manc~ NH    event spe~
    ## # ... with 78 more rows, and 2 more variables: description <chr>,
    ## #   electioncycle <dbl>

Now let’s try adding our date-related columns. First we’ll try year.

``` r
events %>% 
  mutate(year = year(date))
```

    ## # A tibble: 88 x 8
    ##    date       cand_restname cand_lastname city  state event_type
    ##    <date>     <chr>         <chr>         <chr> <chr> <chr>     
    ##  1 2010-02-06 John          Delaney       Salt~ UT    event spe~
    ##  2 2019-01-31 Sherrod       Brown         Perry IA    meet and ~
    ##  3 2019-01-31 Marianne      Williamson    Des ~ IA    campaign ~
    ##  4 2019-01-31 Eric          Swalwell      Exet~ NH    meet and ~
    ##  5 2019-01-31 John          Hickenlooper  Wash~ DC    event spe~
    ##  6 2019-01-30 John          Delaney       Coun~ IA    campaign ~
    ##  7 2019-01-30 Sherrod       Brown         Clev~ OH    rally     
    ##  8 2019-01-30 Howard        Schultz       Tempe AZ    event spe~
    ##  9 2019-01-29 Beto          O'Rourke      El P~ TX    meet and ~
    ## 10 2019-01-29 Michael       Bloomberg     Manc~ NH    event spe~
    ## # ... with 78 more rows, and 2 more variables: description <chr>,
    ## #   year <dbl>

We can add multiple columns as part of one mutate call. Let’s do year,
month and day in one swoop.

``` r
events %>% 
  mutate(year = year(date),
         month = month(date),
         day = day(date))
```

    ## # A tibble: 88 x 10
    ##    date       cand_restname cand_lastname city  state event_type
    ##    <date>     <chr>         <chr>         <chr> <chr> <chr>     
    ##  1 2010-02-06 John          Delaney       Salt~ UT    event spe~
    ##  2 2019-01-31 Sherrod       Brown         Perry IA    meet and ~
    ##  3 2019-01-31 Marianne      Williamson    Des ~ IA    campaign ~
    ##  4 2019-01-31 Eric          Swalwell      Exet~ NH    meet and ~
    ##  5 2019-01-31 John          Hickenlooper  Wash~ DC    event spe~
    ##  6 2019-01-30 John          Delaney       Coun~ IA    campaign ~
    ##  7 2019-01-30 Sherrod       Brown         Clev~ OH    rally     
    ##  8 2019-01-30 Howard        Schultz       Tempe AZ    event spe~
    ##  9 2019-01-29 Beto          O'Rourke      El P~ TX    meet and ~
    ## 10 2019-01-29 Michael       Bloomberg     Manc~ NH    event spe~
    ## # ... with 78 more rows, and 4 more variables: description <chr>,
    ## #   year <dbl>, month <dbl>, day <int>
…
Now we can use our new columns to filter

``` r
events %>% 
  filter(year == 2019,
         month == 1)
```

    ## # A tibble: 61 x 10
    ##    date       cand_restname cand_lastname city  state event_type
    ##    <date>     <chr>         <chr>         <chr> <chr> <chr>     
    ##  1 2019-01-31 Sherrod       Brown         Perry IA    meet and ~
    ##  2 2019-01-31 Marianne      Williamson    Des ~ IA    campaign ~
    ##  3 2019-01-31 Eric          Swalwell      Exet~ NH    meet and ~
    ##  4 2019-01-31 John          Hickenlooper  Wash~ DC    event spe~
    ##  5 2019-01-30 John          Delaney       Coun~ IA    campaign ~
    ##  6 2019-01-30 Sherrod       Brown         Clev~ OH    rally     
    ##  7 2019-01-30 Howard        Schultz       Tempe AZ    event spe~
    ##  8 2019-01-29 Beto          O'Rourke      El P~ TX    meet and ~
    ##  9 2019-01-29 Michael       Bloomberg     Manc~ NH    event spe~
    ## 10 2019-01-28 Howard        Schultz       New ~ NY    book tour 
    ## # ... with 51 more rows, and 4 more variables: description <chr>,
    ## #   year <dbl>, month <dbl>, day <int>
…
Have you all grouped before in other languages? In base R itself? Let’s
discuss.

Grouping to see how many trips each candidate have been on in our data  
Getting used to `n()`

``` r
events %>% 
  group_by(cand_lastname) %>% 
  summarise(n())
```

    ## # A tibble: 24 x 2
    ##    cand_lastname `n()`
    ##    <chr>         <int>
    ##  1 Biden             6
    ##  2 Bloomberg         6
    ##  3 Booker            6
    ##  4 Brown             2
    ##  5 Buttigieg         2
    ##  6 Castro            6
    ##  7 Delaney           8
    ##  8 Gabbard           1
    ##  9 Garcetti          1
    ## 10 Gillibrand        2
    ## # ... with 14 more rows
…
that doesn’t work either. What about this.

``` r
events %>% 
  group_by(cand_lastname) %>% 
  summarise(n()) %>% 
  arrange()
```

    ## # A tibble: 24 x 2
    ##    cand_lastname `n()`
    ##    <chr>         <int>
    ##  1 Biden             6
    ##  2 Bloomberg         6
    ##  3 Booker            6
    ##  4 Brown             2
    ##  5 Buttigieg         2
    ##  6 Castro            6
    ##  7 Delaney           8
    ##  8 Gabbard           1
    ##  9 Garcetti          1
    ## 10 Gillibrand        2
    ## # ... with 14 more rows
…
Oy - this is getting frustrating. How do we solve?  
By doing this: giving the new column a name of our own.  
Check it out:

``` r
events %>% 
  group_by(cand_lastname) %>% 
  summarise(n = n()) 
```

    ## # A tibble: 24 x 2
    ##    cand_lastname     n
    ##    <chr>         <int>
    ##  1 Biden             6
    ##  2 Bloomberg         6
    ##  3 Booker            6
    ##  4 Brown             2
    ##  5 Buttigieg         2
    ##  6 Castro            6
    ##  7 Delaney           8
    ##  8 Gabbard           1
    ##  9 Garcetti          1
    ## 10 Gillibrand        2
    ## # ... with 14 more rows

Now we can do:

``` r
events %>% 
  group_by(cand_lastname) %>% 
  summarise(n = n()) %>% 
  arrange(desc(n))
```

    ## # A tibble: 24 x 2
    ##    cand_lastname     n
    ##    <chr>         <int>
    ##  1 Delaney           8
    ##  2 Harris            7
    ##  3 Swalwell          7
    ##  4 Warren            7
    ##  5 Biden             6
    ##  6 Bloomberg         6
    ##  7 Booker            6
    ##  8 Castro            6
    ##  9 Hickenlooper      4
    ## 10 O'Rourke          4
    ## # ... with 14 more rows

Bingo  
We can call the new columnn anything we want. “n” is a common thing for
counts,  
but can be anything

``` r
events %>% 
  group_by(cand_lastname) %>% 
  summarise(numtrips = n()) %>% 
  arrange(desc(numtrips))
```

    ## # A tibble: 24 x 2
    ##    cand_lastname numtrips
    ##    <chr>            <int>
    ##  1 Delaney              8
    ##  2 Harris               7
    ##  3 Swalwell             7
    ##  4 Warren               7
    ##  5 Biden                6
    ##  6 Bloomberg            6
    ##  7 Booker               6
    ##  8 Castro               6
    ##  9 Hickenlooper         4
    ## 10 O'Rourke             4
    ## # ... with 14 more rows

Now for the magic  
Because this counting is such a common operation, and because the `n()`
becomes a pain to deal with…  
…there is a special shortcut that we can use that collapses everything
into one function

``` r
events %>% 
  count(cand_lastname)
```

    ## # A tibble: 24 x 2
    ##    cand_lastname     n
    ##    <chr>         <int>
    ##  1 Biden             6
    ##  2 Bloomberg         6
    ##  3 Booker            6
    ##  4 Brown             2
    ##  5 Buttigieg         2
    ##  6 Castro            6
    ##  7 Delaney           8
    ##  8 Gabbard           1
    ##  9 Garcetti          1
    ## 10 Gillibrand        2
    ## # ... with 14 more rows

``` r
events %>% 
  count(cand_lastname) %>% 
  arrange(desc(n))
```

    ## # A tibble: 24 x 2
    ##    cand_lastname     n
    ##    <chr>         <int>
    ##  1 Delaney           8
    ##  2 Harris            7
    ##  3 Swalwell          7
    ##  4 Warren            7
    ##  5 Biden             6
    ##  6 Bloomberg         6
    ##  7 Booker            6
    ##  8 Castro            6
    ##  9 Hickenlooper      4
    ## 10 O'Rourke          4
    ## # ... with 14 more rows
…
top single day for most trips

``` r
events %>% 
  count(date) %>% 
  arrange(desc(n))
```

    ## # A tibble: 43 x 2
    ##    date           n
    ##    <date>     <int>
    ##  1 2019-01-21     8
    ##  2 2019-01-24     8
    ##  3 2018-12-20     4
    ##  4 2019-01-18     4
    ##  5 2019-01-22     4
    ##  6 2019-01-31     4
    ##  7 2019-01-25     3
    ##  8 2019-01-27     3
    ##  9 2019-01-28     3
    ## 10 2019-01-30     3
    ## # ... with 33 more rows

we can also group by **more than one** variable  
which candidates have gone to which states?

``` r
events %>% 
  count(cand_lastname, state) %>% 
  arrange(state, desc(n))
```

    ## # A tibble: 72 x 3
    ##    cand_lastname state     n
    ##    <chr>         <chr> <int>
    ##  1 Schultz       AZ        1
    ##  2 Harris        CA        1
    ##  3 Hickenlooper  CA        1
    ##  4 Steyer        CA        1
    ##  5 O'Rourke      CO        1
    ##  6 Biden         DC        3
    ##  7 Bloomberg     DC        2
    ##  8 Harris        DC        2
    ##  9 Hickenlooper  DC        2
    ## 10 Sanders       DC        2
    ## # ... with 62 more rows
…
