…
    ## [1] "j-hn smith" "m-ry todd"  "b-ll holis"

``` r
str_replace_all(x, "[aeiou]", "-")
```

    ## [1] "j-hn sm-th" "m-ry t-dd"  "b-ll h-l-s"

### Back to our campaign data

``` r
events
```

    ## # A tibble: 88 x 7
    ##    date       cand_restname cand_lastname city  state event_type
    ##    <date>     <chr>         <chr>         <chr> <chr> <chr>     
    ##  1 2010-02-06 John          Delaney       Salt~ UT    event spe~
    ##  2 2019-01-31 Sherrod       Brown         Perry IA    meet and ~
    ##  3 2019-01-31 Marianne      Williamson    Des ~ IA    campaign ~
    ##  4 2019-01-31 Eric          Swalwell      Exet~ NH    meet and ~
    ##  5 2019-01-31 John          Hickenlooper  Wash~ DC    event spe~
    ##  6 2019-01-30 John          Delaney       Coun~ IA    campaign ~
    ##  7 2019-01-30 Sherrod       Brown         Clev~ OH    rally     
    ##  8 2019-01-30 Howard        Schultz       Tempe AZ    event spe~
    ##  9 2019-01-29 Beto          O'Rourke      El P~ TX    meet and ~
    ## 10 2019-01-29 Michael       Bloomberg     Manc~ NH    event spe~
    ## # ... with 78 more rows, and 1 more variable: description <chr>

now let’s use string functions to standardize a few event types

``` r
events %>%
  select(event_type) %>% 
  mutate(new_type = case_when(
    str_detect(event_type, "speech") ~ "speech")
  ) 
```

    ## # A tibble: 88 x 2
    ##    event_type                   new_type
    ##    <chr>                        <chr>   
    ##  1 event speech                 speech  
    ##  2 meet and greet               <NA>    
    ##  3 campaign announcement        <NA>    
    ##  4 meet and greet               <NA>    
    ##  5 event speech                 speech  
    ##  6 campaign events              <NA>    
    ##  7 rally                        <NA>    
    ##  8 event speech                 speech  
    ##  9 meet and greet               <NA>    
    ## 10 event speech, meet and greet speech  
    ## # ... with 78 more rows
…
``` r
events %>%
  select(event_type) %>% 
  mutate(new_type = case_when(
    str_detect(event_type, ",") ~ "multiple",
    str_detect(event_type, "speech") ~ "speech",
    str_detect(event_type, "event") ~ "unspecified event",
    str_detect(event_type, "forum") ~ "town hall",
    str_detect(event_type, "town hall") ~ "town hall"
    )
  ) 
```

    ## # A tibble: 88 x 2
    ##    event_type                   new_type         
    ##    <chr>                        <chr>            
    ##  1 event speech                 speech           
    ##  2 meet and greet               <NA>             
    ##  3 campaign announcement        <NA>             
    ##  4 meet and greet               <NA>             
    ##  5 event speech                 speech           
    ##  6 campaign events              unspecified event
    ##  7 rally                        <NA>             
    ##  8 event speech                 speech           
    ##  9 meet and greet               <NA>             
    ## 10 event speech, meet and greet multiple         
    ## # ... with 78 more rows

Notice that in the example above, the search for comma comes first, not
last

We can also use our string functions for filtering  
Let’s see what that might look like

``` r
events %>% 
  filter(str_detect(event_type, "event"))
```

    ## # A tibble: 50 x 7
    ##    date       cand_restname cand_lastname city  state event_type
    ##    <date>     <chr>         <chr>         <chr> <chr> <chr>     
    ##  1 2010-02-06 John          Delaney       Salt~ UT    event spe~
    ##  2 2019-01-31 John          Hickenlooper  Wash~ DC    event spe~
    ##  3 2019-01-30 John          Delaney       Coun~ IA    campaign ~
    ##  4 2019-01-30 Howard        Schultz       Tempe AZ    event spe~
    ##  5 2019-01-29 Michael       Bloomberg     Manc~ NH    event spe~
    ##  6 2019-01-25 Kamala        Harris        Colu~ SC    event spe~
    ##  7 2019-01-25 Michael       Bloomberg     Wash~ DC    event spe~
    ##  8 2019-01-25 John          Delaney       Des ~ IA    event spe~
    ##  9 2019-01-24 Joe           Biden         Wash~ DC    event spe~
    ## 10 2019-01-24 Eric          Garcetti      Wash~ DC    event spe~
    ## # ... with 40 more rows, and 1 more variable: description <chr>

That’s *kinda* helpful, but is there a column this could be even more
useful for?

Examine the descriptions

``` r
events %>% 
  select(cand_restname, description) 
```

    ## # A tibble: 88 x 2
    ##    cand_restname description                                               
    ##    <chr>         <chr>                                                     
    ##  1 John          Delaney will speak at the Sorenson Winter Innovation Summ~
    ##  2 Sherrod       Roundtable with local farmers in Perry, IA and meet and g~
    ##  3 Marianne      Campaign announcement                                     
    ##  4 Eric          Meet and greet with Rockingham County Democrats           
    ##  5 John          Brookings institution Hamilton Project                    
    ##  6 John          Meet & greets and campaign office openings                
    ##  7 Sherrod       Dignity of Work tour                                      
    ##  8 Howard        Discussion with ASU students                              
    ##  9 Beto          meet and greet with UTEP students                         
    ## 10 Michael       Saint Anselm Institute of Politics, factory tour and hous~
    ## # ... with 78 more rows
…
